{
    "key": "group_5e81ebc806f19",
    "title": "Menu 2",
    "fields": [
        {
            "key": "field_5e81ebc816141",
            "label": "Copy",
            "name": "menu_box_copy_two",
            "type": "wysiwyg",
            "instructions": "",
            "required": 0,
            "conditional_logic": 0,
            "wrapper": {
                "width": "",
                "class": "",
                "id": ""
            },
            "default_value": "",
            "tabs": "all",
            "toolbar": "full",
            "media_upload": 1,
            "delay": 0
        }
    ],
    "location": [
        [
            {
                "param": "nav_menu",
                "operator": "==",
                "value": "location\/insulation"
            }
        ]
    ],
    "menu_order": 0,
    "position": "normal",
    "style": "default",
    "label_placement": "top",
    "instruction_placement": "label",
    "hide_on_screen": "",
    "active": 1,
    "description": "",
    "modified": 1585572866
}