<?xml version="1.0" encoding="UTF-8"?>
<svg width="40px" height="40px" viewBox="0 0 40 40" version="1.1" xmlns="http://www.w3.org/2000/svg" xmlns:xlink="http://www.w3.org/1999/xlink">
    <!-- Generator: Sketch 58 (84663) - https://sketch.com -->
    <g id="Layout" stroke="none" stroke-width="1" fill="none" fill-rule="evenodd">
        <g id="Internal-Page-Template" transform="translate(-1199.000000, -1572.000000)">
            <g id="Footer-Copy" transform="translate(0.000000, 1514.000000)">
                <g id="Group-3" transform="translate(1199.000000, 27.500000)">
                    <g id="facebook" transform="translate(0.000000, 30.500000)">
                        <rect id="Rectangle" fill="#7AC143" x="0" y="0" width="40" height="40" rx="8"></rect>
                        <path d="M22.0343708,15.9517879 L22.0343708,13.8607722 C22.0343708,13.5468217 22.0478874,13.3037223 22.0754274,13.1320165 C22.1027985,12.9599492 22.1649748,12.7907737 22.2614495,12.6237672 C22.3577552,12.4569414 22.5138718,12.3416274 22.7294614,12.2778251 C22.9452199,12.2138421 23.2321095,12.1820313 23.5901302,12.1820313 L25.5446289,12.1820313 L25.5446289,8 L22.4199315,8 C20.6117498,8 19.3133125,8.45890646 18.5241126,9.37671937 C17.7349128,10.294713 17.3403974,11.6468513 17.3403974,13.4336766 L17.3403974,15.9517879 L15,15.9517879 L15,20.134 L17.3402284,20.134 L17.3402284,32.268 L22.0343708,32.268 L22.0343708,20.134 L25.1590682,20.134 L25.572,15.9517879 L22.0343708,15.9517879 L22.0343708,15.9517879 Z" id="Shape" fill="#FFFFFF"></path>
                    </g>
                </g>
            </g>
        </g>
    </g>
</svg>
