<?xml version="1.0" encoding="UTF-8"?>
<svg width="40px" height="40px" viewBox="0 0 40 40" version="1.1" xmlns="http://www.w3.org/2000/svg" xmlns:xlink="http://www.w3.org/1999/xlink">
    <!-- Generator: Sketch 58 (84663) - https://sketch.com -->
    <g id="Layout" stroke="none" stroke-width="1" fill="none" fill-rule="evenodd">
        <g id="Internal-Page-Template" transform="translate(-1252.000000, -1572.000000)">
            <g id="Footer-Copy" transform="translate(0.000000, 1514.000000)">
                <g id="Group-3" transform="translate(1199.000000, 27.500000)">
                    <g id="twitter" transform="translate(53.000000, 30.500000)">
                        <rect id="Rectangle-Copy-10" fill="#7AC143" x="0" y="0" width="40" height="40" rx="8"></rect>
                        <path d="M32.401,12.4086828 C31.4411208,12.8313304 30.4808615,13.0952664 29.5213624,13.2012686 C30.605146,12.5356911 31.3381205,11.5954801 31.7200958,10.3806357 C30.7288604,10.9826119 29.6709218,11.394562 28.5459001,11.616486 C27.5548547,10.5389583 26.3370947,10 24.8918598,10 C23.5087671,10 22.3295847,10.4990859 21.3539324,11.4974523 C20.3784701,12.4958186 19.890834,13.7026886 19.890834,15.1182565 C19.890834,15.4985032 19.9320721,15.8894474 20.0147384,16.2908945 C17.9708855,16.1852812 16.0535975,15.6597434 14.2626845,14.7142809 C12.4717715,13.7686239 10.9518519,12.5088501 9.70292569,10.934765 C9.24873615,11.7269618 9.02164139,12.5880114 9.02164139,13.5177195 C9.02164139,14.3945236 9.22289106,15.2081153 9.62558044,15.9581057 C10.0280798,16.7080961 10.5700666,17.3155183 11.2513509,17.7803723 C10.4461622,17.7486689 9.69266366,17.5319963 8.99085532,17.1305492 L8.99085532,17.1939561 C8.99085532,18.4300009 9.37017009,19.5153086 10.1287996,20.4504626 C10.8874292,21.3856166 11.8448379,21.9743668 13.0008358,22.2172968 C12.5673603,22.333413 12.1285638,22.3915684 11.6848264,22.3915684 C11.3957794,22.3915684 11.0808873,22.3651165 10.7403402,22.3126016 C11.0603633,23.3372254 11.6487192,24.1796031 12.5054081,24.8399292 C13.362097,25.5004498 14.3324283,25.840824 15.4162119,25.862219 C13.5996438,27.3197989 11.5301359,28.0487833 9.20768806,28.0487833 C8.76376055,28.0487833 8.36126121,28.0279718 8,27.9855709 C10.3224478,29.5172551 12.8822524,30.283 15.6796038,30.283 C17.4549338,30.283 19.1219424,29.9953351 20.6802496,29.4196164 C22.2391269,28.8438976 23.5705293,28.0727067 24.675027,27.1058493 C25.7793347,26.1393809 26.7316124,25.0274268 27.5314801,23.7701815 C28.3313478,22.5131307 28.9273053,21.2006475 29.3197326,19.8325374 C29.7119699,18.4642328 29.9080886,17.0937888 29.9080886,15.7202327 C29.9080886,15.4243989 29.9029576,15.2026693 29.8925055,15.0546552 C30.8732889,14.3260597 31.7094537,13.4438096 32.401,12.4086828 L32.401,12.4086828 Z" id="Shape" fill="#FFFFFF"></path>
                    </g>
                </g>
            </g>
        </g>
    </g>
</svg>
