<?xml version="1.0" encoding="UTF-8"?>
<svg width="40px" height="40px" viewBox="0 0 40 40" version="1.1" xmlns="http://www.w3.org/2000/svg" xmlns:xlink="http://www.w3.org/1999/xlink">
    <!-- Generator: Sketch 58 (84663) - https://sketch.com -->
    <title>linkdin</title>
    <desc>Created with Sketch.</desc>
    <g id="Layout" stroke="none" stroke-width="1" fill="none" fill-rule="evenodd">
        <g id="Internal-Page-Template" transform="translate(-1305.000000, -1572.000000)">
            <g id="Footer-Copy" transform="translate(0.000000, 1514.000000)">
                <g id="Group-3" transform="translate(1199.000000, 27.500000)">
                    <g id="linkdin" transform="translate(106.000000, 30.500000)">
                        <rect id="Rectangle-Copy-11" fill="#7AC143" x="0" y="0" width="40" height="40" rx="8"></rect>
                        <g id="LinkedIn" transform="translate(8.000000, 9.000000)" fill="#FFFFFF">
                            <rect id="Rectangle-path" x="1.171" y="7" width="5" height="14"></rect>
                            <path d="M21.6186442,7.67917494 C20.5841677,6.5597855 19.2157351,6 17.5144454,6 C16.8875677,6 16.3178455,6.07644168 15.8052786,6.22932504 C15.2928949,6.3822084 14.8601991,6.59664456 14.5068247,6.87281509 C14.1536335,7.14898562 13.8724362,7.40536484 13.6635991,7.64195274 C13.4650207,7.86673849 13.271022,8.12838329 13.0814199,8.4245267 L13.0814199,6.33990219 L8.171,6.33990219 L8.18602162,7.05002905 C8.19609709,7.523568 8.20104323,8.9830412 8.20104323,11.4288118 C8.20104323,13.874764 8.19115095,17.0649785 8.17118319,21 L13.0814199,21 L13.0814199,12.8192878 C13.0814199,12.3163342 13.1360106,11.9170581 13.2455585,11.6209146 C13.454762,11.1177795 13.7702159,10.6963516 14.1933859,10.3562679 C14.6163726,10.0158209 15.1412132,9.84568828 15.7680909,9.84568828 C16.6237735,9.84568828 17.2532159,10.1391081 17.6562349,10.7259478 C18.0590706,11.3126059 18.2605801,12.1238682 18.2605801,13.1593715 L18.2605801,20.9996369 L23.171,20.9996369 L23.171,12.5975887 C23.1706336,10.437612 22.653487,8.79820123 21.6186442,7.67917494 L21.6186442,7.67917494 Z" id="Shape"></path>
                            <path d="M3.18706804,2.55013005e-15 C2.28985049,2.55013005e-15 1.56300078,0.236514374 1.00612086,0.709184223 C0.449240935,1.18185407 0.171,1.77870294 0.171,2.50008972 C0.171,3.21142734 0.441279821,3.80612282 0.981839462,4.2836378 C1.52220008,4.76115278 2.23571492,5 3.12218496,5 L3.1546265,5 C4.06279058,5 4.79521307,4.76133223 5.35189397,4.2836378 C5.90857487,3.80612282 6.18144205,3.21160679 6.17069455,2.50008972 C6.15994704,1.77870294 5.88409444,1.18185407 5.34373383,0.709184223 C4.80337321,0.236334924 4.08428559,2.55013005e-15 3.18706804,2.55013005e-15 L3.18706804,2.55013005e-15 Z" id="Shape"></path>
                        </g>
                    </g>
                </g>
            </g>
        </g>
    </g>
</svg>