<?xml version="1.0" encoding="UTF-8"?>
<svg width="40px" height="40px" viewBox="0 0 40 40" version="1.1" xmlns="http://www.w3.org/2000/svg" xmlns:xlink="http://www.w3.org/1999/xlink">
    <!-- Generator: Sketch 58 (84663) - https://sketch.com -->
    <g id="Layout" stroke="none" stroke-width="1" fill="none" fill-rule="evenodd">
        <g id="Internal-Page-Template" transform="translate(-1358.000000, -1572.000000)">
            <g id="Footer-Copy" transform="translate(0.000000, 1514.000000)">
                <g id="Group-3" transform="translate(1199.000000, 27.500000)">
                    <g id="youtube" transform="translate(159.000000, 30.500000)">
                        <rect id="Rectangle-Copy-12" fill="#7AC143" x="0" y="0" width="40" height="40" rx="8"></rect>
                        <g id="Group-4" transform="translate(10.500000, 18.500000)" fill="#FDFBFB">
                            <path d="M4.25924507,7.43395593 C4.25924507,6.22175468 4.26284128,5.00949052 4.25508103,3.79735216 C4.25400847,3.63301254 4.30170564,3.59521379 4.45792015,3.60011946 C4.81956052,3.61144021 5.181958,3.59842134 5.54385075,3.60634587 C5.67110627,3.60911317 5.70593276,3.56923895 5.70246273,3.44477354 C5.69375611,3.13175468 5.69407157,2.81816977 5.70227346,2.5051509 C5.70542803,2.38288675 5.67558576,2.34420751 5.54555422,2.34476744 C4.24769933,2.34999367 2.94978134,2.34942763 1.65186336,2.34540247 C1.53520721,2.34502512 1.50113781,2.37798109 1.50372456,2.49326411 C1.5108539,2.81320122 1.51331447,3.13364147 1.50252582,3.453327 C1.49785705,3.59118864 1.55640595,3.60735216 1.6708539,3.60565405 C2.03280974,3.60011946 2.39508103,3.60986788 2.75684759,3.60018235 C2.89438702,3.59640876 2.92315674,3.64250939 2.92145327,3.77118864 C2.91438702,4.30905027 2.91848797,4.84710059 2.91848797,5.3851509 C2.91848797,7.2715031 2.92094854,9.1579182 2.91438702,11.0443333 C2.91375611,11.2150251 2.95735232,11.265088 3.12801478,11.2576037 C3.44164254,11.2438301 3.75665832,11.2454654 4.07041226,11.2573522 C4.21981289,11.2630754 4.26429239,11.2279182 4.26328292,11.0705597 C4.25577504,9.85842134 4.25918198,8.64615719 4.25924507,7.43395593 M8.14870879,10.5312515 C8.14870879,10.7657169 8.15413466,10.9481698 8.14656368,11.1301195 C8.14239964,11.229239 8.17470248,11.2576037 8.27268355,11.2558427 C8.58675295,11.2501195 8.90113781,11.2481069 9.21508103,11.2562201 C9.33154791,11.2593018 9.3464375,11.2130754 9.34631131,11.113893 C9.34397693,8.99634587 9.34378765,6.87886159 9.34675387,4.76131442 C9.34694223,4.65439618 9.31798324,4.62049681 9.20952898,4.62320122 C8.92971825,4.63018235 8.64902425,4.63615719 8.36978134,4.621566 C8.1967845,4.61263518 8.14214728,4.65099996 8.14328292,4.83886159 C8.15255737,6.37081128 8.14858261,7.90276096 8.14839333,9.43471065 C8.14833024,9.79269807 7.81255737,10.1944591 7.46082235,10.2549622 C7.28889806,10.2845849 7.17098008,10.2230125 7.11394538,10.0495534 C7.08296746,9.95540247 7.08826715,9.86131442 7.08820406,9.76684901 C7.0871315,8.11232071 7.08542803,6.45779241 7.09047535,4.803327 C7.0908539,4.66288675 7.06063308,4.61546537 6.91299901,4.62175468 C6.62668986,4.63408172 6.33937125,4.62986788 6.05268355,4.62320122 C5.93773087,4.62049681 5.88580658,4.63684901 5.8863698,4.77408172 C5.89318828,6.60559115 5.89318828,8.43716348 5.8953334,10.2686729 C5.89558576,10.4605597 5.92744696,10.6489245 5.98504948,10.8308742 C6.08422929,11.1447106 6.3212009,11.3148993 6.65262046,11.3397421 C6.95892961,11.3626352 7.23211573,11.2771635 7.48668986,11.1164088 C7.72404002,10.9664717 7.92454475,10.7735786 8.14870879,10.5312515 M14.8705384,7.98414461 C14.8932514,8.53489933 14.851611,9.10672323 14.9110432,9.67760373 C15.0146394,10.6714402 15.6552703,11.2944591 16.6459959,11.3502452 C17.5636615,11.4019434 18.3237877,10.8051509 18.4576047,9.9060943 C18.496406,9.64552826 18.4704754,9.3760314 18.4883302,9.11162889 C18.4977309,8.97408172 18.4395605,8.95741505 18.3234091,8.96011946 C18.0231567,8.96716348 17.7223365,8.97037103 17.4223365,8.95905027 C17.2789927,8.95364147 17.2534407,9.00590562 17.2582987,9.13458486 C17.2672577,9.37200625 17.2747656,9.6115031 17.2136299,9.8451509 C17.1170369,10.2142075 16.747447,10.3772264 16.4112955,10.1959685 C16.212999,10.0889874 16.137794,9.90030813 16.1051757,9.69225782 C16.0350179,9.24559115 16.0925574,8.79502512 16.0671315,8.34722637 C16.0575416,8.17911317 16.117163,8.14577983 16.272999,8.14766662 C16.9557119,8.15559115 17.6385511,8.15175468 18.3213902,8.14999367 C18.3930621,8.14980499 18.4899706,8.19081128 18.4871315,8.04710059 C18.4739454,7.38754084 18.5250495,6.72622008 18.4365321,6.06886159 C18.3149548,5.16684901 17.6657435,4.56527669 16.7981725,4.54615719 C15.7822104,4.52376725 15.1104123,5.04383015 14.9473208,5.98766662 C14.8341347,6.64250939 14.8829675,7.30452197 14.8705384,7.98414461 M11.5983618,5.2579182 C11.5983618,4.30892449 11.5957119,3.411566 11.6013271,2.5142704 C11.6022104,2.38320122 11.5713586,2.33892449 11.4338823,2.34445908 C11.1544501,2.35571694 10.8735668,2.3596792 10.5945763,2.34345279 C10.4231567,2.33351568 10.3988034,2.39848423 10.3991159,2.54886159 C10.4038507,4.52936474 10.4023996,6.50993078 10.4025258,8.49049681 C10.4025889,9.35483644 10.4022104,10.2191761 10.4030306,11.0835157 C10.4030936,11.1654654 10.3685195,11.2614402 10.5218318,11.2567232 C10.8423996,11.2469748 11.1634722,11.2510629 11.4842924,11.2555912 C11.5745132,11.2567861 11.6032829,11.2271635 11.599876,11.1382327 C11.593693,10.9790503 11.5981094,10.8194276 11.5981094,10.6102452 C11.8347025,10.8806226 12.0524943,11.0918805 12.333693,11.2259685 C12.9960905,11.5418805 13.6093397,11.2724465 13.8115479,10.5730754 C13.8933776,10.2901195 13.925428,9.99810688 13.9266899,9.70615719 C13.9318003,8.5287987 13.930917,7.35144021 13.9237877,6.17401883 C13.921958,5.87540247 13.8977309,5.57565405 13.8099706,5.28634587 C13.6498444,4.75804398 13.259182,4.4951509 12.7132514,4.55081128 C12.4918003,4.5733899 12.2951441,4.66238361 12.1107277,4.78452197 C11.9283302,4.90540247 11.7813271,5.06433329 11.5983618,5.2579182 M9.68845642,0.000433920413 C11.9150179,-0.00459752613 14.1405069,0.0327609644 16.3625889,0.184333291 C16.8047971,0.214521971 17.2547656,0.22961631 17.6844817,0.325716939 C18.7899706,0.572698071 19.4314848,1.29546537 19.6684564,2.38716348 C19.9504754,3.68628298 19.9735668,5.00710059 19.9854911,6.32772952 C19.995775,7.4715031 19.9932514,8.61552826 19.9103492,9.75716348 C19.8621473,10.4225723 19.7790558,11.0844591 19.6139454,11.7320691 C19.3487088,12.7724465 18.4669422,13.5220062 17.4216425,13.6230125 C14.5693397,13.8985471 11.7087088,13.9164088 8.84725769,13.9018805 C6.98971825,13.8924465 5.13325138,13.8370377 3.28094854,13.6918176 C2.78675295,13.6531383 2.28296746,13.6455912 1.81779396,13.4329496 C0.914071566,13.0197421 0.456973774,12.2897421 0.281642544,11.3379182 C0.0722419126,10.2011257 0.0177939631,9.05370436 0.0079516918,7.90326411 C-0.00504515363,6.39232071 -0.0254237025,4.88024524 0.16107472,3.37571694 C0.218803427,2.90993078 0.272494279,2.43955342 0.433440651,1.9979182 C0.825112575,0.923201216 1.61060153,0.361062851 2.75173718,0.259427631 C5.05981289,0.0538930399 7.37331447,0.0103081342 9.68845642,0.000433920413" id="Fill-1"></path>
                            <path d="M11.6981437,7.86952253 C11.6981437,7.27391918 11.6980183,6.67825462 11.6982063,6.08265127 C11.698269,5.85367663 11.8121374,5.73334407 12.1202148,5.63541319 C12.3483275,5.56288314 12.5316323,5.61399081 12.6587237,5.79179656 C12.7924578,5.97872212 12.8252334,6.19674074 12.8263614,6.41537142 C12.8313749,7.38825348 12.8313749,8.36113554 12.8268001,9.33401759 C12.8258601,9.53245003 12.7921445,9.72984196 12.684731,9.90587271 C12.5682306,10.0967767 12.3841111,10.169368 12.1648346,10.1136086 C11.8155214,10.0246751 11.6981437,9.87979861 11.6981437,9.53734658 L11.6981437,7.86952253 Z" id="Fill-4"></path>
                            <path d="M16.7896446,7.11240887 C16.6386077,7.1123475 16.4875707,7.11118137 16.3365338,7.11296125 C16.2736698,7.11369775 16.2278922,7.10762162 16.2282421,7.01997808 C16.229525,6.68278367 16.2056157,6.34344113 16.2990953,6.01422547 C16.3774712,5.73816058 16.5387717,5.60644977 16.7880118,5.60362652 C17.0459408,5.60068052 17.2057834,5.73343471 17.2910989,6.02060847 C17.3891271,6.35049926 17.3491227,6.69002592 17.3561789,7.02636108 C17.3581033,7.11780988 17.3012457,7.11289987 17.2428137,7.112593 C17.0917768,7.11191787 16.9407398,7.11240887 16.7896446,7.11240887" id="Fill-6"></path>
                        </g>
                        <g id="Group" transform="translate(12.000000, 8.000000)" fill="#FFFFFF">
                            <path d="M2.2167057,5.35963948 L2.2167057,9 L3.65763247,9 L3.65763247,5.35963948 L5.401,0 L3.93124407,0 L2.95158366,3.53286437 L1.92841422,0 L0.401,0 C0.670013088,0.7523082 0.982181464,1.58952517 1.337682,2.51198066 C1.78922073,3.7476918 2.08211072,4.69702132 2.2167057,5.35963948 L2.2167057,5.35963948 Z" id="Shape"></path>
                            <path d="M7.39355275,9 C8.08274505,9 8.61195941,8.7675896 8.9815636,8.30276879 C9.26124916,7.96548004 9.401,7.42766391 9.401,6.68948819 L9.401,4.29691957 C9.401,3.56780535 9.26106528,3.03451996 8.9815636,2.69723121 C8.61195941,2.2324104 8.08274505,2 7.39355275,2 C6.72421979,2 6.19978637,2.2324104 5.8204364,2.69723121 C5.54093472,3.03451996 5.401,3.56780535 5.401,4.29691957 L5.401,6.68948819 C5.401,7.41860242 5.54075084,7.95641855 5.8204364,8.30276879 C6.19997026,8.7675896 6.72421979,9 7.39355275,9 L7.39355275,9 Z M6.74922783,4.05074913 C6.74922783,3.42181469 6.9640028,3.10734748 7.39355275,3.10734748 C7.8231027,3.10734748 8.03769379,3.42181469 8.03769379,4.05074913 L8.03769379,6.92173079 C8.03769379,7.55989452 7.8231027,7.87872468 7.39355275,7.87872468 C6.9640028,7.87872468 6.74922783,7.55972672 6.74922783,6.92173079 L6.74922783,4.05074913 L6.74922783,4.05074913 Z" id="Shape"></path>
                            <path d="M11.4278033,9 C11.9388539,9 12.4651399,8.71406394 13.0064735,8.14219182 L13.0064735,8.90304662 L14.401,8.90304662 L14.401,2 L13.0064735,2 L13.0064735,7.27063018 C12.6998808,7.66727308 12.4088999,7.86542473 12.1327784,7.86542473 C11.9486347,7.86542473 11.8414213,7.76405666 11.8109502,7.56115073 C11.800605,7.54264299 11.7955265,7.38116722 11.7955265,7.07689322 L11.7955265,2 L10.401,2 L10.401,7.45061369 C10.401,7.92094795 10.4420044,8.26665211 10.5236371,8.48806578 C10.6566193,8.82935526 10.9579454,9 11.4278033,9 L11.4278033,9 Z" id="Shape"></path>
                        </g>
                    </g>
                </g>
            </g>
        </g>
    </g>
</svg>
