<?xml version="1.0" encoding="UTF-8"?>
<svg width="46px" height="46px" viewBox="0 0 46 46" version="1.1" xmlns="http://www.w3.org/2000/svg" xmlns:xlink="http://www.w3.org/1999/xlink">
    <!-- Generator: Sketch 58 (84663) - https://sketch.com -->
    <title>Shape Copy 4</title>
    <desc>Created with Sketch.</desc>
    <defs>
        <path d="M349.318246,1075.96084 C347.529878,1072.89681 345.103834,1070.47076 342.039795,1068.68239 C338.975116,1066.89402 335.629477,1066 332.000639,1066 C328.372121,1066 325.025843,1066.89402 321.961484,1068.68239 C318.897125,1070.47044 316.471081,1072.89649 314.682712,1075.96084 C312.894024,1079.0252 312,1082.3718 312,1086 C312,1089.6282 312.894344,1092.97448 314.682393,1096.03916 C316.470761,1099.10256 318.896805,1101.52924 321.961164,1103.31761 C325.025523,1105.10598 328.371802,1106 332.00032,1106 C335.628838,1106 338.975436,1105.10598 342.039475,1103.31761 C345.103514,1101.52956 347.529558,1099.10319 349.317927,1096.03916 C351.105976,1092.97448 352,1089.62788 352,1086 C352,1082.3718 351.105976,1079.02488 349.318246,1075.96084 L349.318246,1075.96084 Z M342.143217,1087.44063 L327.571335,1095.76625 C327.303385,1095.92208 327.017681,1096 326.714223,1096 C326.428519,1096 326.142815,1095.93071 325.857112,1095.79212 C325.285704,1095.46256 325,1094.97718 325,1094.33532 L325,1077.68473 C325,1077.04319 325.285704,1076.55749 325.857112,1076.22794 C326.446273,1075.91563 327.017681,1075.92425 327.571335,1076.2538 L342.143217,1084.5791 C342.714296,1084.89109 343,1085.36849 343,1086.01003 C343,1086.65156 342.714296,1087.12833 342.143217,1087.44063 L342.143217,1087.44063 Z" id="path-1"></path>
        <filter x="-13.8%" y="-8.8%" width="127.5%" height="127.5%" filterUnits="objectBoundingBox" id="filter-2">
            <feOffset dx="0" dy="2" in="SourceAlpha" result="shadowOffsetOuter1"></feOffset>
            <feGaussianBlur stdDeviation="1.5" in="shadowOffsetOuter1" result="shadowBlurOuter1"></feGaussianBlur>
            <feColorMatrix values="0 0 0 0 0   0 0 0 0 0   0 0 0 0 0  0 0 0 0.310461957 0" type="matrix" in="shadowBlurOuter1"></feColorMatrix>
        </filter>
    </defs>
    <g id="Layout" stroke="none" stroke-width="1" fill="none" fill-rule="evenodd">
        <g id="Homepage-V5" transform="translate(-309.000000, -1065.000000)">
            <g id="Shape-Copy-4">
                <use fill="black" fill-opacity="1" filter="url(#filter-2)" xlink:href="#path-1"></use>
                <use fill="#FFFFFF" fill-rule="evenodd" xlink:href="#path-1"></use>
            </g>
        </g>
    </g>
</svg>