<?xml version="1.0" encoding="UTF-8"?>
<svg width="18px" height="18px" viewBox="0 0 18 18" version="1.1" xmlns="http://www.w3.org/2000/svg" xmlns:xlink="http://www.w3.org/1999/xlink">
    <!-- Generator: Sketch 58 (84663) - https://sketch.com -->
    <title>Shape Copy</title>
    <desc>Created with Sketch.</desc>
    <g id="Page-1" stroke="none" stroke-width="1" fill="none" fill-rule="evenodd">
        <g id="Internal-Page-Template" transform="translate(-318.000000, -550.000000)" fill="#FFFFFF">
            <g id="Group" transform="translate(198.000000, 537.000000)">
                <g id="Group-2" transform="translate(17.000000, 8.000000)">
                    <path d="M119.793211,9.48238002 C118.988445,8.10356235 117.896725,7.01184255 116.517908,6.20707676 C115.138802,5.40231097 113.633265,5 112.000288,5 C110.367455,5 108.861629,5.40231097 107.482668,6.20707676 C106.103706,7.01169871 105.011986,8.10341852 104.207221,9.48238002 C103.402311,10.8613415 103,12.3673107 103,14 C103,15.6326893 103.402455,17.1385146 104.207077,18.51762 C105.011843,19.89615 106.103562,20.9881575 107.482524,21.7929232 C108.861485,22.597689 110.367311,23 112.000144,23 C113.632977,23 115.138946,22.597689 116.517764,21.7929232 C117.896581,20.9883013 118.988301,19.8964376 119.793067,18.51762 C120.597689,17.1385146 121,15.6325454 121,14 C121,12.3673107 120.597689,10.8611977 119.793211,9.48238002 L119.793211,9.48238002 Z M117.014448,14.6482845 L110.457101,18.3948121 C110.336523,18.4649374 110.207956,18.5 110.0714,18.5 C109.942834,18.5 109.814267,18.4688173 109.6857,18.4064518 C109.428567,18.2581541 109.3,18.0397312 109.3,17.7508957 L109.3,10.2581278 C109.3,9.96943595 109.428567,9.75086934 109.6857,9.60257169 C109.950823,9.46203379 110.207956,9.46591367 110.457101,9.61421133 L117.014448,13.3605953 C117.271433,13.5009895 117.4,13.7158199 117.4,14.0045117 C117.4,14.2932036 117.271433,14.5077466 117.014448,14.6482845 L117.014448,14.6482845 Z" id="Shape-Copy" transform="translate(112.000000, 14.000000) rotate(-360.000000) translate(-112.000000, -14.000000) "></path>
                </g>
            </g>
        </g>
    </g>
</svg>