<?xml version="1.0" encoding="UTF-8"?>
<svg width="56px" height="56px" viewBox="0 0 56 56" version="1.1" xmlns="http://www.w3.org/2000/svg" xmlns:xlink="http://www.w3.org/1999/xlink">
    <!-- Generator: Sketch 58 (84663) - https://sketch.com -->
    <title>Shape Copy 3</title>
    <desc>Created with Sketch.</desc>
    <g id="Layout" stroke="none" stroke-width="1" fill="none" fill-rule="evenodd">
        <g id="Homepage-V5" transform="translate(-251.000000, -617.000000)" fill="#FFFFFF">
            <g id="Group-Copy-5" transform="translate(199.000000, 602.000000)">
                <path d="M104.245545,28.9451823 C101.741829,24.6555273 98.3453677,21.2590657 94.0557127,18.7553499 C89.7651628,16.2516341 85.0812677,15 80.000895,15 C74.9209698,15 70.2361797,16.2516341 65.9460773,18.7553499 C61.6559748,21.2586182 58.2595132,24.6550798 55.7557974,28.9451823 C53.2516341,33.2352847 52,37.9205223 52,43 C52,48.0794777 53.2520816,52.7642678 55.7553499,57.0548177 C58.2590657,61.3435777 61.6555273,64.7409343 65.9456298,67.2446501 C70.2357322,69.7483659 74.9205223,71 80.0004475,71 C85.0803727,71 89.7656103,69.7483659 94.0552652,67.2446501 C98.3449202,64.7413818 101.741382,61.3444727 104.245098,57.0548177 C106.748366,52.7642678 108,48.0790302 108,43 C108,37.9205223 106.748366,33.2348372 104.245545,28.9451823 L104.245545,28.9451823 Z M95.8100239,45.0168851 L75.5712981,56.6727488 C75.1991452,56.8909163 74.8023343,57 74.3808654,57 C73.9840545,57 73.5872436,56.902987 73.1904327,56.7089611 C72.3968109,56.2475906 72,55.5680526 72,54.6694531 L72,31.3586198 C72,30.4604674 72.3968109,29.7804824 73.1904327,29.3191119 C74.0087125,28.8818829 74.8023343,28.8939536 75.5712981,29.3553241 L95.8100239,41.0107408 C96.6031891,41.4475227 97,42.1158841 97,43.0140365 C97,43.9121889 96.6031891,44.5796561 95.8100239,45.0168851 L95.8100239,45.0168851 Z" id="Shape-Copy-3" transform="translate(80.000000, 43.000000) rotate(-360.000000) translate(-80.000000, -43.000000) "></path>
            </g>
        </g>
    </g>
</svg>
